{
    "variants": {
        "facing=up": { "model": "faunaandecology:normal_candle" },
        "facing=east": { "model": "faunaandecology:normal_candle_wall" },
        "facing=south": { "model": "faunaandecology:normal_candle_wall", "y": 90 },
        "facing=west": { "model": "faunaandecology:normal_candle_wall", "y": 180 },
        "facing=north": { "model": "faunaandecology:normal_candle_wall", "y": 270 }
    }
}
