{
    "type": "minecraft:crafting_shaped",
    
    "pattern":
    [
        "LL"
    ],
    
    "key":
    {
        "L":
        {
            "type": "forge:ore_dict",
            "ore": "tanninRich"
        }
    },
    
    "result":
    {
        "item": "faunaandecology:tannin_powder",
        "count": 4
    }
    
}